triot	55ed792c450af7b4c2a87ce2aadcec0f8f27e8c3d09b88504549e5ea644596ec
tiger	c2d8f2af490a8a57b46bd022f6a1426db12d95c137c69e27f9488e656ccb2b36
tricent	9fd8d0ba021a4c1b46045b80e29f177455bc9d027646d9d4135e7e7eeafda2c9
